0000.001 (0) Opened log file at time: Tue, 29 Oct 2019 07:53:35 +0000 on http://localhost/pawjamas
0000.003 (0) UpdraftPlus WordPress backup plugin (https://updraftplus.com): 1.16.17 WP: 5.2.4 PHP: 7.1.6 (apache2handler, Darwin Hamzas-MacBook-Pro-8.local 19.0.0 Darwin Kernel Version 19.0.0: Wed Sep 25 20:18:50 PDT 2019; root:xnu-6153.11.26~2/RELEASE_X86_64 x86_64) MySQL: 5.6.35 WPLANG: en_US Server: Apache/2.2.32 (Unix) mod_wsgi/3.5 Python/2.7.13 PHP/7.1.6 mod_ssl/2.2.32 OpenSSL/1.0.2j DAV/2 mod_fastcgi/2.4.6 mod_perl/2.0.9 Perl/v5.24.0 safe_mode: 0 max_execution_time: 900 memory_limit: 512M (used: 34.7M | 36M) multisite: N openssl: OpenSSL 1.0.2j  26 Sep 2016 mcrypt: Y LANG:  ZipArchive::addFile: Y
0000.004 (0) Free space on disk containing Updraft's temporary directory: 47243.7 MB
0000.007 (0) Tasks: Backup files: 1 (schedule: daily) Backup DB:  (schedule: daily)
0000.008 (0) Processed schedules. Combining jobs from identical schedules. Tasks now: Backup files: 1 Backup DB: 1
0000.011 (0) Requesting semaphore lock (fd) (apparently via scheduler: last_scheduled_action_called_at=1572328193, seconds_ago=7422)
0000.013 (0) Semaphore (fd, wp_options) was stuck, set lock time to 2019-10-29 07:53:35
0000.016 (0) Semaphore (fd, wp_options) reset to 1
0000.017 (0) Set semaphore last lock (fd) time to 2019-10-29 07:53:35
0000.018 (0) Semaphore lock (fd) complete
0000.022 (0) Backup run: resumption=0, nonce=1e9395837c97, file_nonce=1e9395837c97 begun at=1572335615 (0s ago), job type=backup
0000.024 (0) Scheduling a resumption (1) after 300 seconds (1572335915) in case this run gets aborted
0000.053 (0) Checking if we have a zip executable available
0000.055 (0) Testing: /usr/bin/zip
0000.075 (0) Output: zip warning: binziptest/test.zip not found or empty
0000.077 (0) Output: adding: binziptest/subdir1/	(in=0) (out=0) (stored 0%)
0000.078 (0) Output: adding: binziptest/subdir1/subdir2/	(in=0) (out=0) (stored 0%)
0000.080 (0) Output: adding: binziptest/subdir1/subdir2/test.html	(in=131) (out=107) (deflated 18%)
0000.081 (0) Output: total bytes=131, compressed=107 -> 18% savings
0000.091 (0) Output: adding: binziptest/subdir1/subdir2/test2.html	(in=138) (out=113) (deflated 18%)
0000.093 (0) Output: total bytes=269, compressed=220 -> 18% savings
0000.113 (0) Working binary zip found: /usr/bin/zip
0000.116 (0) Zip engine: found/will use a binary zip: /usr/bin/zip
0000.118 (0) Creation of backups of directories: beginning
0000.122 (0) No backup of plugins: excluded by user's options
0000.123 (0) No backup of themes: excluded by user's options
0000.124 (0) No backup of uploads: excluded by user's options
0000.126 (0) No backup of others: excluded by user's options
0000.131 (0) Saving backup status to database (elements: 0)
0000.135 (0) Beginning creation of database dump (WordPress DB)
0000.167 (0) Table wp_options: Total expected rows (approximate): 277
0000.213 (0) Table wp_options: Total rows added: 430 in 0.04 seconds
0000.216 (0) Table wp_options: finishing file (backup_2019-10-29-1153_Pawjamas_1e9395837c97-db-table-wp_options.table.gz - 105 KB)
0000.221 (0) Table wp_users: Total expected rows (approximate): 2
0000.225 (0) Table wp_users: Total rows added: 2 in 0.00 seconds
0000.227 (0) Table wp_users: finishing file (backup_2019-10-29-1153_Pawjamas_1e9395837c97-db-table-wp_users.table.gz - 0.7 KB)
0000.232 (0) Table wp_usermeta: Total expected rows (approximate): 63
0000.238 (0) Table wp_usermeta: Total rows added: 63 in 0.00 seconds
0000.240 (0) Table wp_usermeta: finishing file (backup_2019-10-29-1153_Pawjamas_1e9395837c97-db-table-wp_usermeta.table.gz - 2.1 KB)
0000.245 (0) Table wp_commentmeta: Total expected rows (approximate): 0
0000.250 (0) Table wp_commentmeta: Total rows added: 0 in 0.00 seconds
0000.251 (0) Table wp_commentmeta: finishing file (backup_2019-10-29-1153_Pawjamas_1e9395837c97-db-table-wp_commentmeta.table.gz - 0.4 KB)
0000.258 (0) Table wp_comments: Total expected rows (approximate): 1
0000.263 (0) Table wp_comments: Total rows added: 1 in 0.00 seconds
0000.265 (0) Table wp_comments: finishing file (backup_2019-10-29-1153_Pawjamas_1e9395837c97-db-table-wp_comments.table.gz - 0.7 KB)
0000.270 (0) Table wp_links: Total expected rows (approximate): 0
0000.274 (0) Table wp_links: Total rows added: 0 in 0.00 seconds
0000.275 (0) Table wp_links: finishing file (backup_2019-10-29-1153_Pawjamas_1e9395837c97-db-table-wp_links.table.gz - 0.4 KB)
0000.280 (0) Table wp_postmeta: Total expected rows (approximate): 111827
0003.189 (0) Table wp_postmeta: Total rows added: 2270 in 2.91 seconds
0003.195 (0) Table wp_postmeta: finishing file (backup_2019-10-29-1153_Pawjamas_1e9395837c97-db-table-wp_postmeta.table.gz - 6497.3 KB)
0003.200 (0) Table wp_posts: Total expected rows (approximate): 438
0003.237 (0) Table wp_posts: Total rows added: 451 in 0.03 seconds
0003.239 (0) Table wp_posts: finishing file (backup_2019-10-29-1153_Pawjamas_1e9395837c97-db-table-wp_posts.table.gz - 34.1 KB)
0003.244 (0) Table wp_signups: Total expected rows (approximate): 0
0003.249 (0) Table wp_signups: Total rows added: 0 in 0.00 seconds
0003.250 (0) Table wp_signups: finishing file (backup_2019-10-29-1153_Pawjamas_1e9395837c97-db-table-wp_signups.table.gz - 0.5 KB)
0003.255 (0) Table wp_term_relationships: Total expected rows (approximate): 38
0003.260 (0) Table wp_term_relationships: Total rows added: 38 in 0.00 seconds
0003.262 (0) Table wp_term_relationships: finishing file (backup_2019-10-29-1153_Pawjamas_1e9395837c97-db-table-wp_term_relationships.table.gz - 0.5 KB)
0003.268 (0) Table wp_term_taxonomy: Total expected rows (approximate): 29
0003.273 (0) Table wp_term_taxonomy: Total rows added: 29 in 0.00 seconds
0003.274 (0) Table wp_term_taxonomy: finishing file (backup_2019-10-29-1153_Pawjamas_1e9395837c97-db-table-wp_term_taxonomy.table.gz - 0.9 KB)
0003.281 (0) Table wp_termmeta: Total expected rows (approximate): 0
0003.285 (0) Table wp_termmeta: Total rows added: 0 in 0.00 seconds
0003.287 (0) Table wp_termmeta: finishing file (backup_2019-10-29-1153_Pawjamas_1e9395837c97-db-table-wp_termmeta.table.gz - 0.4 KB)
0003.292 (0) Table wp_terms: Total expected rows (approximate): 29
0003.297 (0) Table wp_terms: Total rows added: 29 in 0.00 seconds
0003.298 (0) Table wp_terms: finishing file (backup_2019-10-29-1153_Pawjamas_1e9395837c97-db-table-wp_terms.table.gz - 0.8 KB)
0003.305 (0) Table wp_bp_activity: Total expected rows (approximate): 0
0003.310 (0) Table wp_bp_activity: Total rows added: 0 in 0.00 seconds
0003.311 (0) Table wp_bp_activity: finishing file (backup_2019-10-29-1153_Pawjamas_1e9395837c97-db-table-wp_bp_activity.table.gz - 0.5 KB)
0003.316 (0) Table wp_bp_activity_meta: Total expected rows (approximate): 0
0003.320 (0) Table wp_bp_activity_meta: Total rows added: 0 in 0.00 seconds
0003.321 (0) Table wp_bp_activity_meta: finishing file (backup_2019-10-29-1153_Pawjamas_1e9395837c97-db-table-wp_bp_activity_meta.table.gz - 0.3 KB)
0003.327 (0) Table wp_bp_invitations: Total expected rows (approximate): 0
0003.331 (0) Table wp_bp_invitations: Total rows added: 0 in 0.00 seconds
0003.332 (0) Table wp_bp_invitations: finishing file (backup_2019-10-29-1153_Pawjamas_1e9395837c97-db-table-wp_bp_invitations.table.gz - 0.5 KB)
0003.338 (0) Table wp_bp_notifications: Total expected rows (approximate): 0
0003.343 (0) Table wp_bp_notifications: Total rows added: 0 in 0.00 seconds
0003.344 (0) Table wp_bp_notifications: finishing file (backup_2019-10-29-1153_Pawjamas_1e9395837c97-db-table-wp_bp_notifications.table.gz - 0.4 KB)
0003.350 (0) Table wp_bp_notifications_meta: Total expected rows (approximate): 0
0003.355 (0) Table wp_bp_notifications_meta: Total rows added: 0 in 0.00 seconds
0003.357 (0) Table wp_bp_notifications_meta: finishing file (backup_2019-10-29-1153_Pawjamas_1e9395837c97-db-table-wp_bp_notifications_meta.table.gz - 0.4 KB)
0003.362 (0) Table wp_bp_xprofile_data: Total expected rows (approximate): 0
0003.367 (0) Table wp_bp_xprofile_data: Total rows added: 0 in 0.00 seconds
0003.368 (0) Table wp_bp_xprofile_data: finishing file (backup_2019-10-29-1153_Pawjamas_1e9395837c97-db-table-wp_bp_xprofile_data.table.gz - 0.4 KB)
0003.374 (0) Table wp_bp_xprofile_fields: Total expected rows (approximate): 1
0003.380 (0) Table wp_bp_xprofile_fields: Total rows added: 1 in 0.00 seconds
0003.381 (0) Table wp_bp_xprofile_fields: finishing file (backup_2019-10-29-1153_Pawjamas_1e9395837c97-db-table-wp_bp_xprofile_fields.table.gz - 0.5 KB)
0003.387 (0) Table wp_bp_xprofile_groups: Total expected rows (approximate): 1
0003.392 (0) Table wp_bp_xprofile_groups: Total rows added: 1 in 0.00 seconds
0003.394 (0) Table wp_bp_xprofile_groups: finishing file (backup_2019-10-29-1153_Pawjamas_1e9395837c97-db-table-wp_bp_xprofile_groups.table.gz - 0.4 KB)
0003.400 (0) Table wp_bp_xprofile_meta: Total expected rows (approximate): 1
0003.404 (0) Table wp_bp_xprofile_meta: Total rows added: 1 in 0.00 seconds
0003.406 (0) Table wp_bp_xprofile_meta: finishing file (backup_2019-10-29-1153_Pawjamas_1e9395837c97-db-table-wp_bp_xprofile_meta.table.gz - 0.4 KB)
0003.411 (0) Table wp_cf_form_entries: Total expected rows (approximate): 0
0003.416 (0) Table wp_cf_form_entries: Total rows added: 0 in 0.00 seconds
0003.417 (0) Table wp_cf_form_entries: finishing file (backup_2019-10-29-1153_Pawjamas_1e9395837c97-db-table-wp_cf_form_entries.table.gz - 0.4 KB)
0003.422 (0) Table wp_cf_form_entry_meta: Total expected rows (approximate): 0
0003.427 (0) Table wp_cf_form_entry_meta: Total rows added: 0 in 0.00 seconds
0003.429 (0) Table wp_cf_form_entry_meta: finishing file (backup_2019-10-29-1153_Pawjamas_1e9395837c97-db-table-wp_cf_form_entry_meta.table.gz - 0.4 KB)
0003.434 (0) Table wp_cf_form_entry_values: Total expected rows (approximate): 0
0003.438 (0) Table wp_cf_form_entry_values: Total rows added: 0 in 0.00 seconds
0003.440 (0) Table wp_cf_form_entry_values: finishing file (backup_2019-10-29-1153_Pawjamas_1e9395837c97-db-table-wp_cf_form_entry_values.table.gz - 0.4 KB)
0003.445 (0) Table wp_cf_forms: Total expected rows (approximate): 2
0003.450 (0) Table wp_cf_forms: Total rows added: 2 in 0.00 seconds
0003.451 (0) Table wp_cf_forms: finishing file (backup_2019-10-29-1153_Pawjamas_1e9395837c97-db-table-wp_cf_forms.table.gz - 2.1 KB)
0003.457 (0) Table wp_cf_pro_messages: Total expected rows (approximate): 0
0003.462 (0) Table wp_cf_pro_messages: Total rows added: 0 in 0.00 seconds
0003.464 (0) Table wp_cf_pro_messages: finishing file (backup_2019-10-29-1153_Pawjamas_1e9395837c97-db-table-wp_cf_pro_messages.table.gz - 0.3 KB)
0003.470 (0) Table wp_cf_queue_failures: Total expected rows (approximate): 0
0003.474 (0) Table wp_cf_queue_failures: Total rows added: 0 in 0.00 seconds
0003.475 (0) Table wp_cf_queue_failures: finishing file (backup_2019-10-29-1153_Pawjamas_1e9395837c97-db-table-wp_cf_queue_failures.table.gz - 0.3 KB)
0003.482 (0) Table wp_cf_queue_jobs: Total expected rows (approximate): 0
0003.486 (0) Table wp_cf_queue_jobs: Total rows added: 0 in 0.00 seconds
0003.488 (0) Table wp_cf_queue_jobs: finishing file (backup_2019-10-29-1153_Pawjamas_1e9395837c97-db-table-wp_cf_queue_jobs.table.gz - 0.4 KB)
0003.493 (0) Table wp_wpuf_subscribers: Total expected rows (approximate): 0
0003.498 (0) Table wp_wpuf_subscribers: Total rows added: 0 in 0.00 seconds
0003.500 (0) Table wp_wpuf_subscribers: finishing file (backup_2019-10-29-1153_Pawjamas_1e9395837c97-db-table-wp_wpuf_subscribers.table.gz - 0.4 KB)
0003.506 (0) Table wp_wpuf_transaction: Total expected rows (approximate): 0
0003.510 (0) Table wp_wpuf_transaction: Total rows added: 0 in 0.00 seconds
0003.511 (0) Table wp_wpuf_transaction: finishing file (backup_2019-10-29-1153_Pawjamas_1e9395837c97-db-table-wp_wpuf_transaction.table.gz - 0.5 KB)
0003.516 (0) backup_2019-10-29-1153_Pawjamas_1e9395837c97-db-table-wp_options.table.gz (1/31): adding to final database dump
0003.552 (0) backup_2019-10-29-1153_Pawjamas_1e9395837c97-db-table-wp_users.table.gz (2/31): adding to final database dump
0003.554 (0) backup_2019-10-29-1153_Pawjamas_1e9395837c97-db-table-wp_usermeta.table.gz (3/31): adding to final database dump
0003.556 (0) backup_2019-10-29-1153_Pawjamas_1e9395837c97-db-table-wp_commentmeta.table.gz (4/31): adding to final database dump
0003.558 (0) backup_2019-10-29-1153_Pawjamas_1e9395837c97-db-table-wp_comments.table.gz (5/31): adding to final database dump
0003.559 (0) backup_2019-10-29-1153_Pawjamas_1e9395837c97-db-table-wp_links.table.gz (6/31): adding to final database dump
0003.561 (0) backup_2019-10-29-1153_Pawjamas_1e9395837c97-db-table-wp_postmeta.table.gz (7/31): adding to final database dump
0006.254 (0) backup_2019-10-29-1153_Pawjamas_1e9395837c97-db-table-wp_posts.table.gz (8/31): adding to final database dump
0006.273 (0) backup_2019-10-29-1153_Pawjamas_1e9395837c97-db-table-wp_signups.table.gz (9/31): adding to final database dump
0006.274 (0) backup_2019-10-29-1153_Pawjamas_1e9395837c97-db-table-wp_term_relationships.table.gz (10/31): adding to final database dump
0006.276 (0) backup_2019-10-29-1153_Pawjamas_1e9395837c97-db-table-wp_term_taxonomy.table.gz (11/31): adding to final database dump
0006.278 (0) backup_2019-10-29-1153_Pawjamas_1e9395837c97-db-table-wp_termmeta.table.gz (12/31): adding to final database dump
0006.279 (0) backup_2019-10-29-1153_Pawjamas_1e9395837c97-db-table-wp_terms.table.gz (13/31): adding to final database dump
0006.281 (0) backup_2019-10-29-1153_Pawjamas_1e9395837c97-db-table-wp_bp_activity.table.gz (14/31): adding to final database dump
0006.283 (0) backup_2019-10-29-1153_Pawjamas_1e9395837c97-db-table-wp_bp_activity_meta.table.gz (15/31): adding to final database dump
0006.284 (0) backup_2019-10-29-1153_Pawjamas_1e9395837c97-db-table-wp_bp_invitations.table.gz (16/31): adding to final database dump
0006.286 (0) backup_2019-10-29-1153_Pawjamas_1e9395837c97-db-table-wp_bp_notifications.table.gz (17/31): adding to final database dump
0006.288 (0) backup_2019-10-29-1153_Pawjamas_1e9395837c97-db-table-wp_bp_notifications_meta.table.gz (18/31): adding to final database dump
0006.289 (0) backup_2019-10-29-1153_Pawjamas_1e9395837c97-db-table-wp_bp_xprofile_data.table.gz (19/31): adding to final database dump
0006.291 (0) backup_2019-10-29-1153_Pawjamas_1e9395837c97-db-table-wp_bp_xprofile_fields.table.gz (20/31): adding to final database dump
0006.292 (0) backup_2019-10-29-1153_Pawjamas_1e9395837c97-db-table-wp_bp_xprofile_groups.table.gz (21/31): adding to final database dump
0006.294 (0) backup_2019-10-29-1153_Pawjamas_1e9395837c97-db-table-wp_bp_xprofile_meta.table.gz (22/31): adding to final database dump
0006.296 (0) backup_2019-10-29-1153_Pawjamas_1e9395837c97-db-table-wp_cf_form_entries.table.gz (23/31): adding to final database dump
0006.298 (0) backup_2019-10-29-1153_Pawjamas_1e9395837c97-db-table-wp_cf_form_entry_meta.table.gz (24/31): adding to final database dump
0006.299 (0) backup_2019-10-29-1153_Pawjamas_1e9395837c97-db-table-wp_cf_form_entry_values.table.gz (25/31): adding to final database dump
0006.301 (0) backup_2019-10-29-1153_Pawjamas_1e9395837c97-db-table-wp_cf_forms.table.gz (26/31): adding to final database dump
0006.303 (0) backup_2019-10-29-1153_Pawjamas_1e9395837c97-db-table-wp_cf_pro_messages.table.gz (27/31): adding to final database dump
0006.304 (0) backup_2019-10-29-1153_Pawjamas_1e9395837c97-db-table-wp_cf_queue_failures.table.gz (28/31): adding to final database dump
0006.306 (0) backup_2019-10-29-1153_Pawjamas_1e9395837c97-db-table-wp_cf_queue_jobs.table.gz (29/31): adding to final database dump
0006.308 (0) backup_2019-10-29-1153_Pawjamas_1e9395837c97-db-table-wp_wpuf_subscribers.table.gz (30/31): adding to final database dump
0006.309 (0) backup_2019-10-29-1153_Pawjamas_1e9395837c97-db-table-wp_wpuf_transaction.table.gz (31/31): adding to final database dump
0006.314 (0) backup_2019-10-29-1153_Pawjamas_1e9395837c97-db.gz: finished writing out complete database file (6616 KB)
0006.458 (0) Total database tables backed up: 31 (backup_2019-10-29-1153_Pawjamas_1e9395837c97-db.gz, size: 6806231, sha1: ebda466b3a616a13ad8ab05b03598af7baf8cf51, sha256: 5a220cd6dce32989555512662630a6a754306855418aefbad434e67a60dd477e)
0006.466 (0) backup_2019-10-29-1153_Pawjamas_1e9395837c97-db.gz: db: This file has not yet been successfully uploaded: will queue
0006.468 (0) Saving backup history. Total backup size: 6.5 MB
0006.472 (0) Requesting upload of the files that have not yet been successfully uploaded (1)
0006.477 (0) Cloud backup selection (1/1): none with instance (1/1) (last)
0006.478 (0) No remote despatch: user chose no remote backup service
0006.480 (0) Recording as successfully uploaded: backup_2019-10-29-1153_Pawjamas_1e9395837c97-db.gz
0006.483 (0) Prune old backups from local store: nothing to do, since the user disabled local deletion and we are using local backups
0006.484 (0) Resume backup (1e9395837c97, 0): finish run
0006.488 (0) Decremented the semaphore (fd) by 1
0006.490 (0) Semaphore (fd) unlocked
0006.491 (0) There were no errors in the uploads, so the 'resume' event (1) is being unscheduled
0006.497 (0) No email will/can be sent - the user has not configured an email address.
0006.498 (0) The backup apparently succeeded and is now complete
